{
    "name": "ControllersAssembly",
    "references": [
        "GUID:db9a06515e4c54b4a813475a7c54e2f3",
        "GUID:f31c07e7975494725874d571ac0e6cb1",
        "GUID:6055be8ebefd69e48b49212b09b47b2f"
    ],
    "optionalUnityReferences": [],
    "includePlatforms": [],
    "excludePlatforms": [],
    "allowUnsafeCode": false,
    "overrideReferences": false,
    "precompiledReferences": [],
    "autoReferenced": true,
    "defineConstraints": [],
    "versionDefines": []
}